1 0.12139423076923077 0.09254807692307693 0.18028846153846154 0.18509615384615385
1 0.7475961538461539 0.18269230769230768 0.2091346153846154 0.33413461538461536
1 0.5865384615384616 0.2247596153846154 0.16346153846153846 0.29086538461538464
1 0.24519230769230768 0.0889423076923077 0.16826923076923078 0.1778846153846154
1 0.7175480769230769 0.08413461538461539 0.15625 0.14182692307692307
1 0.9759615384615384 0.21754807692307693 0.04326923076923077 0.3389423076923077