1 0.21995192307692307 0.33774038461538464 0.05048076923076923 0.07932692307692307
1 0.36778846153846156 0.25240384615384615 0.0625 0.07932692307692307
1 0.5168269230769231 0.2403846153846154 0.06490384615384616 0.07932692307692307
1 0.765625 0.21033653846153846 0.06971153846153846 0.09615384615384616
1 0.6225961538461539 0.20552884615384615 0.052884615384615384 0.06009615384615385