1 0.23918269230769232 0.3389423076923077 0.1971153846153846 0.29086538461538464
1 0.8521634615384616 0.09254807692307693 0.1658653846153846 0.18509615384615385
1 0.5084134615384616 0.25841346153846156 0.1971153846153846 0.2620192307692308
1 0.6310096153846154 0.17307692307692307 0.18269230769230768 0.28125
1 0.6875 0.1201923076923077 0.15384615384615385 0.2403846153846154