1 0.9399038461538461 0.2848557692307692 0.11538461538461539 0.18509615384615385
1 0.6502403846153846 0.16466346153846154 0.1201923076923077 0.1658653846153846
1 0.9002403846153846 0.2800480769230769 0.09615384615384616 0.1466346153846154
1 0.5060096153846154 0.41346153846153844 0.1971153846153846 0.2644230769230769
1 0.23076923076923078 0.28125 0.08653846153846154 0.11298076923076923
1 0.6045673076923077 0.30288461538461536 0.07932692307692307 0.11298076923076923
1 0.7932692307692307 0.2536057692307692 0.057692307692307696 0.09615384615384616