1 0.20793269230769232 0.6574519230769231 0.06971153846153846 0.08653846153846154
1 0.25600961538461536 0.6081730769230769 0.06490384615384616 0.08653846153846154
1 0.4483173076923077 0.5769230769230769 0.057692307692307696 0.07451923076923077
1 0.3894230769230769 0.6153846153846154 0.0625 0.0673076923076923
1 0.30288461538461536 0.6129807692307693 0.05048076923076923 0.06490384615384616
1 0.17668269230769232 0.6201923076923077 0.06490384615384616 0.08413461538461539
1 0.5492788461538461 0.5841346153846154 0.04326923076923077 0.057692307692307696
0 0.9182692307692307 0.5324519230769231 0.04807692307692308 0.052884615384615384
1 0.8918269230769231 0.5540865384615384 0.038461538461538464 0.04567307692307692
0 0.13341346153846154 0.6418269230769231 0.055288461538461536 0.06009615384615385