1 0.4170673076923077 0.4879807692307692 0.06490384615384616 0.09134615384615384
1 0.5865384615384616 0.41947115384615385 0.07692307692307693 0.09375
1 0.7475961538461539 0.42908653846153844 0.07932692307692307 0.09375
1 0.984375 0.4338942307692308 0.026442307692307692 0.11298076923076923
1 0.8641826923076923 0.4074519230769231 0.06490384615384616 0.07211538461538461