0 0.29086538461538464 0.3762019230769231 0.10096153846153846 0.15384615384615385
0 0.6514423076923077 0.28966346153846156 0.0985576923076923 0.12740384615384615
0 0.46634615384615385 0.3389423076923077 0.1201923076923077 0.18509615384615385
0 0.5576923076923077 0.30528846153846156 0.10096153846153846 0.15625
0 0.1502403846153846 0.41586538461538464 0.16105769230769232 0.24759615384615385