1 0.09495192307692307 0.40024038461538464 0.11298076923076923 0.1658653846153846
1 0.421875 0.47716346153846156 0.09134615384615384 0.13221153846153846
1 0.9254807692307693 0.49278846153846156 0.14423076923076922 0.2692307692307692
1 0.171875 0.43509615384615385 0.09134615384615384 0.13221153846153846
1 0.27163461538461536 0.43509615384615385 0.09375 0.12259615384615384
1 0.7980769230769231 0.5576923076923077 0.09134615384615384 0.14182692307692307
1 0.6454326923076923 0.4951923076923077 0.0889423076923077 0.1201923076923077
1 0.7451923076923077 0.5048076923076923 0.08413461538461539 0.12980769230769232
1 0.5480769230769231 0.4831730769230769 0.07692307692307693 0.12259615384615384
1 0.8725961538461539 0.546875 0.09375 0.17067307692307693