1 0.7115384615384616 0.19831730769230768 0.17067307692307693 0.28365384615384615
1 0.20673076923076922 0.14182692307692307 0.0889423076923077 0.14423076923076922
1 0.3173076923076923 0.36899038461538464 0.10096153846153846 0.125
1 0.4519230769230769 0.515625 0.1346153846153846 0.22596153846153846
1 0.5793269230769231 0.5144230769230769 0.125 0.20673076923076922
1 0.9098557692307693 0.25240384615384615 0.17548076923076922 0.32211538461538464