0 0.16105769230769232 0.4639423076923077 0.07211538461538461 0.11778846153846154
0 0.7295673076923077 0.3545673076923077 0.0673076923076923 0.10576923076923077
0 0.671875 0.3918269230769231 0.0625 0.10096153846153846
0 0.5204326923076923 0.41586538461538464 0.0625 0.0985576923076923
0 0.41586538461538464 0.41947115384615385 0.04807692307692308 0.0889423076923077
0 0.26322115384615385 0.41947115384615385 0.07692307692307693 0.11057692307692307
0 0.3125 0.4495192307692308 0.0625 0.08653846153846154
0 0.36177884615384615 0.44711538461538464 0.04807692307692308 0.09615384615384616
0 0.10817307692307693 0.4651442307692308 0.06009615384615385 0.10096153846153846