1 0.09735576923076923 0.375 0.055288461538461536 0.10336538461538461
1 0.27163461538461536 0.39302884615384615 0.11538461538461539 0.1971153846153846
1 0.39903846153846156 0.4110576923076923 0.11778846153846154 0.19230769230769232
0 0.5216346153846154 0.43990384615384615 0.08413461538461539 0.14903846153846154
0 0.1778846153846154 0.35336538461538464 0.07451923076923077 0.12980769230769232
0 0.046875 0.33533653846153844 0.07451923076923077 0.14182692307692307
0 0.9158653846153846 0.6045673076923077 0.06971153846153846 0.12740384615384615
0 0.7860576923076923 0.5108173076923077 0.0889423076923077 0.13701923076923078
0 0.7055288461538461 0.5396634615384616 0.06009615384615385 0.11057692307692307
0 0.6514423076923077 0.5216346153846154 0.09375 0.14182692307692307
0 0.6021634615384616 0.5528846153846154 0.06009615384615385 0.12980769230769232
0 0.5492788461538461 0.5348557692307693 0.06490384615384616 0.1201923076923077