0 0.6382211538461539 0.234375 0.12980769230769232 0.19471153846153846
0 0.16947115384615385 0.32211538461538464 0.125 0.16346153846153846
0 0.41466346153846156 0.2824519230769231 0.15384615384615385 0.23798076923076922
0 0.28846153846153844 0.2920673076923077 0.12980769230769232 0.19951923076923078
0 0.8221153846153846 0.20793269230769232 0.20673076923076922 0.31490384615384615